<?xml version="1.0" encoding="utf-8"?>
<!-- Generator: Adobe Illustrator 26.2.1, SVG Export Plug-In . SVG Version: 6.00 Build 0)  -->
<svg version="1.1" xmlns="http://www.w3.org/2000/svg" xmlns:xlink="http://www.w3.org/1999/xlink" x="0px" y="0px"
	 viewBox="0 0 633.1 282" style="enable-background:new 0 0 633.1 282;" xml:space="preserve">
<style type="text/css">
	.st0{fill:#BD0939;}
</style>
<g id="Guides">
</g>
<g id="logo">
</g>
<g id="_x40_">
</g>
<g id="c__x2B___x40_">
</g>
<g id="Phrase_1">
	<g>
		<g>
			<g>
				<path class="st0" d="M96.1,227.8h-4.5v9c0,0.7,0.1,1.1,0.9,1.1h2.9v2.3H83.1v-2.3h2.5c0.8,0,0.9-0.4,0.9-1.1v-23.2
					c0-0.7-0.1-1.1-0.9-1.1h-2.6v-2.4c3.1,0,6.1-0.2,11.7-0.2c5.4,0,12.9-0.1,12.9,9.1C107.7,226.5,102.3,227.8,96.1,227.8z
					 M95.9,224.8c5,0,6.5-1.6,6.5-6.3c0-4-1.8-5.9-6.6-5.9c-1.5,0-4.2,0.2-4.2,0.2v11.9H95.9z"/>
				<path class="st0" d="M121,241c-8.8,0-10.3-7.5-10.3-11.7c0-4.3,1.5-11.7,10.3-11.7c8.8,0,10.3,7.4,10.3,11.7
					C131.3,233.5,129.8,241,121,241z M121,220.7c-3.9,0-5.6,3.1-5.6,8.6c0,5.4,1.7,8.5,5.6,8.5c4,0,5.6-3.1,5.6-8.5
					C126.6,223.8,125,220.7,121,220.7z"/>
				<path class="st0" d="M154.7,241.1c0,0-2.8-2.4-3.6-4.7c-2.7,3.5-5.2,4.6-8.2,4.6c-4.8,0-6.8-3.4-6.8-7.9v-11.3
					c0-0.6-0.1-1.1-0.9-1.1h-1.8v-2.4h7v12.4c0,3.6,0,6.7,4.1,6.7c2.1,0,4-1.2,6.1-4.3c0,0,0-1.2,0-2.2v-9.1c0-0.6-0.1-1.1-1-1.1
					h-1.8v-2.4h7v14c0,1.8,0.2,2.9,0.5,3.6c0.4,0.9,2.1,2.6,2.1,2.6L154.7,241.1z"/>
				<path class="st0" d="M175.7,222.6c-2,0-1.6-1.5-3.5-1.5c-1.8,0-3.4,1.8-4.8,4.4c0.1,0.7,0.2,1.6,0.2,2.2v9
					c0,0.7,0.1,1.1,0.9,1.1h1.8v2.4h-9.6v-2.4h1.8c0.8,0,0.9-0.4,0.9-1.1v-5.2c0-5.1-0.2-7.2-0.9-9.1c-0.7-1.5-1.4-1.7-2-1.5
					l-0.6,0.2l-0.6-1.4l5.4-2.1c0.8,1.6,1.5,3.2,2,4.8c1.7-2.9,4.2-4.8,7.4-4.8c2.1,0,3.7,1.1,3.7,2.9
					C177.7,222.1,176.6,222.6,175.7,222.6z"/>
				<path class="st0" d="M189.8,240.2v-2.4h1.8c0.8,0,0.9-0.4,0.9-1.1v-23.9c0-0.7-0.2-1.1-0.9-1.1h-1.8v-2.3h6.9v27.3
					c0,0.7,0.2,1.1,1,1.1h1.8v2.4H189.8z"/>
				<path class="st0" d="M220.7,238c0,0-3,3-8.5,3c-9,0-10.6-6.8-10.6-11.7c0-4.1,1.7-11.7,10.2-11.7c7.1,0,9.1,4.8,9.1,11v0
					c0,0.8-0.1,1.2-0.7,1.2h-14c0,4.8,1.8,8,6.1,8c2.2,0,4.5-0.8,6.4-2.4L220.7,238z M211.8,220.5c-4.2,0-5.2,3.1-5.4,6.6h10
					C216.3,222.6,215.2,220.5,211.8,220.5z"/>
				<path class="st0" d="M254.5,240.9c-1.4-1.1-2.4-2.2-3-3.2c-1,1.1-3,3.3-7.3,3.3c-4.6,0-9.3-3.3-9.3-12c0-6.2,2.4-11.4,8.6-11.4
					c3,0,4.7,1.1,6.8,3v-7.9c0-0.8-0.2-1.1-1-1.1h-1.8v-2.3h6.8v23c0,1.8,0.3,3,0.7,3.9c0.4,0.9,1.9,2.3,1.9,2.3L254.5,240.9z
					 M250,230.8v-6.6c-0.9-1.2-2.9-3.2-5.3-3.2c-3.5,0-5.2,3-5.2,8c0,5.6,2,8.6,5.2,8.6c2.9,0,4.8-2,5.6-3
					C250.2,234.7,250,232.6,250,230.8z"/>
				<path class="st0" d="M275.1,222.6c-2,0-1.6-1.5-3.5-1.5c-1.8,0-3.4,1.8-4.8,4.4c0.1,0.7,0.2,1.6,0.2,2.2v9
					c0,0.7,0.1,1.1,0.9,1.1h1.8v2.4h-9.6v-2.4h1.8c0.8,0,0.9-0.4,0.9-1.1v-5.2c0-5.1-0.2-7.2-0.9-9.1c-0.7-1.5-1.4-1.7-2-1.5
					l-0.6,0.2l-0.6-1.4l5.4-2.1c0.8,1.6,1.5,3.2,2,4.8c1.7-2.9,4.2-4.8,7.4-4.8c2.1,0,3.7,1.1,3.7,2.9
					C277.2,222.1,276,222.6,275.1,222.6z"/>
				<path class="st0" d="M289.5,241c-8.8,0-10.3-7.5-10.3-11.7c0-4.3,1.5-11.7,10.3-11.7c8.8,0,10.3,7.4,10.3,11.7
					C299.8,233.5,298.3,241,289.5,241z M289.5,220.7c-3.9,0-5.6,3.1-5.6,8.6c0,5.4,1.7,8.5,5.6,8.5c4,0,5.6-3.1,5.6-8.5
					C295.1,223.8,293.5,220.7,289.5,220.7z"/>
				<path class="st0" d="M302.3,240.2v-2.4h1.8c0.8,0,0.9-0.4,0.9-1.1v-15c0-0.6-0.1-1.1-0.9-1.1h-1.8v-2.3h6.9v18.4
					c0,0.7,0.1,1.1,0.9,1.1h1.8v2.4H302.3z M307.1,213.9c-1.6,0-2.6-0.9-2.6-2.7c0-1.6,0.9-2.7,2.6-2.7c1.9,0,2.6,1.2,2.6,2.7
					C309.8,213,308.7,213.9,307.1,213.9z"/>
				<path class="st0" d="M324.1,240.9c-6.1,0-7.4-3.4-7.4-7.8v-11.6l-3.8,0.1v-3c4.8,0,5.3-3.5,5.3-6.1v-2.4h2.9v8.3l7.6-0.2v3.4
					l-7.6-0.1v11.6c0,2.4,0.3,4.5,3.2,4.5c2,0,3.5-1.3,4.4-2.2l1.8,2.4C328.8,239.8,326.4,240.9,324.1,240.9z"/>
				<path class="st0" d="M362.8,240.9c-1.4-1.1-2.4-2.2-3-3.2c-1,1.1-3,3.3-7.3,3.3c-4.6,0-9.3-3.3-9.3-12c0-6.2,2.4-11.4,8.6-11.4
					c3,0,4.7,1.1,6.8,3v-7.9c0-0.8-0.2-1.1-1-1.1h-1.8v-2.3h6.8v23c0,1.8,0.3,3,0.7,3.9c0.4,0.9,1.9,2.3,1.9,2.3L362.8,240.9z
					 M358.4,230.8v-6.6c-0.9-1.2-2.9-3.2-5.3-3.2c-3.5,0-5.2,3-5.2,8c0,5.6,2,8.6,5.2,8.6c2.9,0,4.8-2,5.6-3
					C358.6,234.7,358.4,232.6,358.4,230.8z"/>
				<path class="st0" d="M386.7,238c0,0-3,3-8.5,3c-9,0-10.6-6.8-10.6-11.7c0-4.1,1.7-11.7,10.2-11.7c7.1,0,9.1,4.8,9.1,11v0
					c0,0.8-0.1,1.2-0.7,1.2h-14c0,4.8,1.8,8,6.1,8c2.2,0,4.5-0.8,6.4-2.4L386.7,238z M377.9,220.5c-4.2,0-5.2,3.1-5.4,6.6h10
					C382.4,222.6,381.3,220.5,377.9,220.5z"/>
				<path class="st0" d="M399.1,241c-4.5,0-8.9-1-8.9-3.9c0-1.3,0.9-2.1,2-2.1c1.6,0,1.6,1,2.2,1.7c0.3,0.2,1.4,1.3,4.7,1.3
					c2.6,0,5-0.8,5-3.4c0-2.8-2.1-2.9-5.7-3.6c-4.1-0.7-7.7-1.8-7.7-6.8c0-3.5,3-6.6,8.6-6.6c3.8,0,7.4,0.9,7.4,3.5
					c0,1.1-0.6,1.8-1.6,1.8c-1.8,0-1.9-1-2.5-1.6c-0.8-0.8-2-0.9-3.4-0.9c-3.3,0-4.7,1.6-4.7,3.2c0,2.3,0.9,2.8,5.5,3.6
					c3.8,0.7,8.2,1.1,8.2,7.1C408.1,239.6,402.7,241,399.1,241z"/>
				<path class="st0" d="M438.4,241c-1.8-1.1-3-3.5-3-3.5c-1.8,2.4-4.6,3.4-7.1,3.4c-2.8,0-7.2-1.2-7.2-6.7c0-4.2,3.2-6.6,8.2-6.6
					c2.3,0,4.8,0.3,4.8,0.3v-3.7c0-3-0.8-3.9-3.8-3.9c-1.7,0-3.2,0.2-3.8,1.2c-0.4,0.7-0.3,2-2.2,2c-1.1,0-1.9-1-1.9-2
					c0-3.5,5.5-4,8.3-4c6.9,0,7.5,3.6,7.5,7c0,6.1,0,5.5,0,8.6c0,3.3,1.9,4.6,2.6,5.4L438.4,241z M434.1,230.3c0,0-2.4-0.2-3.5-0.2
					c-3.2,0-5.2,1.2-5.2,4.2c0,2.6,2.4,3.4,3.5,3.4c2.4,0,4.4-1.2,5.4-2.8c0,0-0.2-1.6-0.2-2.6V230.3z"/>
				<path class="st0" d="M459,222.6c-2,0-1.6-1.5-3.5-1.5c-1.8,0-3.4,1.8-4.8,4.4c0.1,0.7,0.2,1.6,0.2,2.2v9c0,0.7,0.1,1.1,0.9,1.1
					h1.8v2.4H444v-2.4h1.8c0.8,0,0.9-0.4,0.9-1.1v-5.2c0-5.1-0.2-7.2-0.9-9.1c-0.7-1.5-1.4-1.7-2-1.5l-0.6,0.2l-0.6-1.4l5.4-2.1
					c0.8,1.6,1.5,3.2,2,4.8c1.7-2.9,4.2-4.8,7.4-4.8c2.1,0,3.7,1.1,3.7,2.9C461.1,222.1,460,222.6,459,222.6z"/>
				<path class="st0" d="M474.5,240.9c-6.1,0-7.4-3.4-7.4-7.8v-11.6l-3.8,0.1v-3c4.8,0,5.3-3.5,5.3-6.1v-2.4h2.9v8.3l7.6-0.2v3.4
					l-7.6-0.1v11.6c0,2.4,0.3,4.5,3.2,4.5c2,0,3.5-1.3,4.4-2.2l1.8,2.4C479.3,239.8,476.9,240.9,474.5,240.9z"/>
				<path class="st0" d="M483.6,240.2v-2.4h1.8c0.8,0,0.9-0.4,0.9-1.1v-15c0-0.6-0.1-1.1-0.9-1.1h-1.8v-2.3h6.9v18.4
					c0,0.7,0.1,1.1,0.9,1.1h1.8v2.4H483.6z M488.4,213.9c-1.6,0-2.6-0.9-2.6-2.7c0-1.6,0.9-2.7,2.6-2.7c1.9,0,2.6,1.2,2.6,2.7
					C491,213,490,213.9,488.4,213.9z"/>
				<path class="st0" d="M504.9,241c-4.5,0-8.9-1-8.9-3.9c0-1.3,0.9-2.1,2-2.1c1.6,0,1.6,1,2.2,1.7c0.3,0.2,1.4,1.3,4.7,1.3
					c2.6,0,5-0.8,5-3.4c0-2.8-2.1-2.9-5.7-3.6c-4.1-0.7-7.7-1.8-7.7-6.8c0-3.5,3-6.6,8.6-6.6c3.8,0,7.4,0.9,7.4,3.5
					c0,1.1-0.6,1.8-1.6,1.8c-1.8,0-1.9-1-2.5-1.6c-0.8-0.8-2-0.9-3.4-0.9c-3.3,0-4.7,1.6-4.7,3.2c0,2.3,0.9,2.8,5.5,3.6
					c3.8,0.7,8.2,1.1,8.2,7.1C514,239.6,508.6,241,504.9,241z"/>
				<path class="st0" d="M527,240.9c-6.1,0-7.4-3.4-7.4-7.8v-11.6l-3.8,0.1v-3c4.8,0,5.3-3.5,5.3-6.1v-2.4h2.9v8.3l7.6-0.2v3.4
					l-7.6-0.1v11.6c0,2.4,0.3,4.5,3.2,4.5c2,0,3.5-1.3,4.4-2.2l1.8,2.4C531.8,239.8,529.4,240.9,527,240.9z"/>
				<path class="st0" d="M554.4,238c0,0-3,3-8.5,3c-9,0-10.6-6.8-10.6-11.7c0-4.1,1.7-11.7,10.2-11.7c7.1,0,9.1,4.8,9.1,11v0
					c0,0.8-0.1,1.2-0.7,1.2h-14c0,4.8,1.8,8,6.1,8c2.2,0,4.5-0.8,6.4-2.4L554.4,238z M545.5,220.5c-4.2,0-5.2,3.1-5.4,6.6h10
					C550,222.6,549,220.5,545.5,220.5z"/>
				<path class="st0" d="M566.7,241c-4.5,0-8.9-1-8.9-3.9c0-1.3,0.9-2.1,2-2.1c1.6,0,1.6,1,2.2,1.7c0.3,0.2,1.4,1.3,4.7,1.3
					c2.6,0,5-0.8,5-3.4c0-2.8-2.1-2.9-5.7-3.6c-4.1-0.7-7.7-1.8-7.7-6.8c0-3.5,3-6.6,8.6-6.6c3.8,0,7.4,0.9,7.4,3.5
					c0,1.1-0.6,1.8-1.6,1.8c-1.8,0-1.9-1-2.5-1.6c-0.8-0.8-2-0.9-3.4-0.9c-3.3,0-4.7,1.6-4.7,3.2c0,2.3,0.9,2.8,5.5,3.6
					c3.8,0.7,8.2,1.1,8.2,7.1C575.8,239.6,570.4,241,566.7,241z"/>
			</g>
		</g>
		<path class="st0" d="M294.1,160.5c-5.5-4.5-9.7-8.9-12.2-13c-4,4.5-12.1,13.2-29.3,13.2c-18.7,0-37.4-13.2-37.4-48.1
			c0-24.8,9.8-45.9,34.5-45.9c11.9,0,19,4.5,27.2,12.2V47.1c0-3.1-1-4.3-4.2-4.3h-7.2v-9.2h27.5V126c0,7.4,1.1,12.1,2.7,15.6
			c1.8,3.5,7.7,9.3,7.7,9.3L294.1,160.5z M276.2,119.9V93.2c-3.7-4.8-11.6-12.9-21.4-12.9c-14,0-20.9,11.9-20.9,32.2
			c0,22.4,8.2,34.8,20.8,34.8c11.8,0,19.5-7.9,22.4-11.9C277,135.4,276.2,127.1,276.2,119.9z"/>
		<path class="st0" d="M386.1,160.9c-7.1-4.3-12.1-14-12.1-14c-7.2,9.5-18.7,13.7-28.5,13.7c-11.1,0-28.8-5-28.8-27
			c0-17.1,12.9-26.6,33.2-26.6c9.3,0,19.2,1.3,19.2,1.3V93.5c0-11.9-3.1-15.6-15.3-15.6c-6.8,0-13,1-15.3,4.7
			c-1.6,2.7-1.1,8.2-8.9,8.2c-4.5,0-7.7-3.9-7.7-8.2c0-14.2,22.2-16.3,33.5-16.3c27.9,0,30.3,14.5,30.3,28.3
			c0,24.6-0.2,22.2-0.2,34.8c0,13.2,7.7,18.4,10.6,21.6L386.1,160.9z M369,117.8c0,0-9.7-0.6-14.2-0.6c-13,0-20.9,4.7-20.9,16.9
			c0,10.3,9.5,13.7,14.2,13.7c9.5,0,17.7-5,21.6-11.1c0,0-0.6-6.3-0.6-10.6V117.8z"/>
		<path class="st0" d="M497.2,64c-4.7,0-4.3-3.1-9.2-2.7c-5.3,0.3-9.7,6.1-8.9,14.2c0,1.1,0.2,2.4,0.3,3.2c5,6,8.1,13.5,8.1,22.9
			c0,21.3-16.1,35.1-36.5,35.1c-3.9,0-7.7-0.6-11.3-1.6c-7.7,2.6-13.7,6.6-13.7,15c0,10.6,9.8,11.4,17.7,11.3
			c11.8,0,16.9-0.6,29.6-0.6c12.6,0,18.5,3.9,18.5,11.3c0,5.3-3.7,10.5-7.7,11.3c-1.4-4.7-4.8-6.4-13.7-6.4
			c-8.7,0-14.3,0.5-32.2,0.5c-17.5,0-27.5-9.8-27.5-24.5c0-17.1,15-22.1,17.9-22.7c-8.7-6-14.2-16.1-14.2-28.5
			c0-21.4,15.8-35.3,36.5-35.3c6.9,0,13.4,1.8,18.8,4.5c0-14.5,10.8-23.8,22.9-24c6.9-0.2,12.4,2.9,12.4,9.2
			C505.1,60.6,502.2,64,497.2,64z M451,77.6c-11.4,0-18.2,8.4-18.2,24c0,15.6,6.8,23.8,18.2,23.8c11.3,0,18-8.2,18-23.8
			C469,85.9,462.2,77.6,451,77.6z"/>
		<path class="st0" d="M563.8,160.5c-12.1,0-19.3-4.7-27.4-12.4v26.4c0,2.9,0.8,4.3,3.9,4.3h7.4v9h-38.6v-9.3h7.1
			c3.4,0,3.9-1.8,3.9-4.5v-54.6c0-7.4,0.3-22.2-3.9-33.3c-1.1-3.5-4.2-8-8-6.6c-0.2,0-2.3,1-2.3,1l-2.4-5.6l21.7-9
			c3.7,5.8,7.1,16.1,7.1,16.4c3.7-4.5,14.5-15.8,30.4-15.8c21.3,0,35.7,15.3,35.7,48.1C598.5,139.2,589,160.5,563.8,160.5z
			 M559.3,80c-12.1,0-21.1,10.3-23.8,14.3c0,0,1.3,5.6,1.3,12.9v26.6c3.9,4.8,12.1,13.2,21.9,13.2c13.8,0,21.1-11.9,21.1-32.4
			C579.8,91.7,573.5,80,559.3,80z"/>
		<g>
			<path class="st0" d="M66.9,150.3C56.5,135.4,52.7,119,55.5,101c2.8-18,11.3-32.4,25.7-43.4c14.3-10.9,30.1-15,47.4-12.2
				c11.2,1.8,21.2,6.5,30,13.9c8.8,7.5,15.3,16.8,19.4,27.9c4.1,11.1,5.2,22.5,3.4,34.2c-2.8,17.9-11.4,32.3-25.8,43.2
				c-14.4,10.9-30.2,15-47.3,12.2C91.1,174,77.3,165.2,66.9,150.3 M78.1,43.4c-12.5,7-22.4,16.5-29.6,28.6
				c-7.2,12.1-10.8,25.1-10.8,39c0,13.8,3.6,26.8,10.9,38.8c7.2,12.1,17.1,21.6,29.7,28.6c12.5,7,25.9,10.5,40.3,10.5
				c14.3,0,27.7-3.5,40.3-10.5c12.5-7,22.4-16.5,29.7-28.6c7.2-12.1,10.9-25,10.9-38.8c0-13.9-3.6-26.9-10.8-38.9
				c-7.2-12.1-17.1-21.6-29.6-28.6c-12.5-7-26-10.5-40.3-10.5C104.1,32.9,90.6,36.4,78.1,43.4"/>
		</g>
		<path class="st0" d="M146.4,154.4l11.6-11.9l-11.9-11.8v-34c0-5,0-9.1-0.5-12.7C143.7,71.1,132.2,67,117,66.8
			c-12.9-0.2-30.3,2.5-30.3,14.6c0,4.8,3.1,7.8,7.4,7.8c5.4,0,9-2.7,9-9.9h26.7v57h-26.7v-22.2c-12,0-21.2,6.7-21.2,20.1
			c0,13.3,10.3,20.4,23.2,20.4c9.9,0,18.5-6.9,24.7-18.1C134.9,143.5,146.4,154.4,146.4,154.4"/>
	</g>
</g>
<g id="Phrase_2">
</g>
<g id="Phrase_3">
</g>
<g id="Mode_Isolation">
</g>
</svg>
